{
    "entrainement" : { 
        "titre" : "Entraînement",
        "icone" : "heartbeat",
        "maximum" : 36,
        "dureeIntro" : 3,
        "aRebours" : false,
        "modeChrono" : false,
        "ensemble" : [
            { "nom": "Course sur place", "duree": 45, "son": "sonGongCourt"},
            { "nom": "Récupération", "duree": 30, "son": "sonAtariSaut"},
            { "nom": "Gainage abdominal", "duree": 45, "son": "sonGongCourt"},
            { "nom": "Récupération", "duree": 30, "son": "sonAtariSaut"},
            { "nom": "Squatts", "duree": 45, "son": "sonGongCourt"},
            { "nom": "Récupération", "duree": 30, "son": "sonAtariSaut"},
            { "nom": "Gainage lombaire", "duree": 45, "son": "sonGongCourt"},
            { "nom": "Récupération", "duree": 30, "son": "sonAtariSaut"},
            { "nom": "Équilibre / poirier", "duree": 45, "son": "sonGongCourt"},
            { "nom": "Récupération", "duree": 30, "son": "sonAtariSaut"},
            { "nom": "Gainage latéral droit", "duree": 45, "son": "sonGongCourt"},
            { "nom": "Récupération", "duree": 30, "son": "sonAtariSaut"},
            { "nom": "Pompes", "duree": 45, "son": "sonGongCourt"},
            { "nom": "Récupération", "duree": 30, "son": "sonAtariSaut"},
            { "nom": "Gainage latéral gauche", "duree": 45, "son": "sonGongCourt"},
            { "nom": "Récupération", "duree": 30, "son": "sonAtariSaut"}
        ]
    },
    "youpiMatin" : { 
        "titre" : "Youpi Matin",
        "icone" : "sun",
        "maximum" : 36,
        "dureeIntro" : 3,
        "aRebours" : true,
        "modeChrono" : false,
        "ensemble" : [
            { "nom": "Course", "duree": 50, "son": "sonAtariSaut"},
            { "nom": "Récupération", "duree": 10, "son": "sonAtariKirby"},
            { "nom": "Squatts", "duree": 50, "son": "sonAtariSaut"},
            { "nom": "Récupération", "duree": 10, "son": "sonAtariKirby"},
            { "nom": "Dos gain abdominal", "duree": 50, "son": "sonAtariSaut"},
            { "nom": "Récupération", "duree": 10, "son": "sonAtariKirby"},
            { "nom": "Dos gain lombaire", "duree": 50, "son": "sonAtariSaut"},
            { "nom": "Récupération", "duree": 10, "son": "sonAtariKirby"},
            { "nom": "Dos gain lombaire G/D", "duree": 50, "son": "sonAtariSaut"},
            { "nom": "Récupération", "duree": 10, "son": "sonAtariKirby"},
            { "nom": "Ventre gain abdo", "duree": 50, "son": "sonAtariSaut"},
            { "nom": "Récupération", "duree": 10, "son": "sonAtariKirby"},
            { "nom": "Ventre gain abdo D", "duree": 50, "son": "sonAtariSaut"},
            { "nom": "Récupération", "duree": 10, "son": "sonAtariKirby"},
            { "nom": "Ventre gain abdo G", "duree": 50, "son": "sonAtariSaut"},
            { "nom": "Récupération", "duree": 10, "son": "sonAtariKirby"},
            { "nom": "Équilibre", "duree": 50, "son": "sonAtariSaut"},
            { "nom": "Récupération", "duree": 10, "son": "sonAtariKirby"},
            { "nom": "Pompes", "duree": 50, "son": "sonAtariSaut"},
            { "nom": "Récupération", "duree": 10, "son": "sonPOCOuais"}
        ]
    },
    "carre" : { 
        "titre" : "Carré",
        "icone" : "carre",
        "maximum" : 36,
        "dureeIntro" : 4,
        "aRebours" : false,
        "modeChrono" : false,
        "ensemble" : [
            { "nbCycles": 3, "duree": 5, "son": "sonClocheMedium"},
            { "nbCycles": 3, "duree": 10, "son": "sonClocheMedium"},
            { "nbCycles": 3, "duree": 15, "son": "sonClocheMedium"},
            { "nbCycles": 3, "duree": 10, "son": "sonClocheMedium"},
            { "nbCycles": 3, "duree": 5, "son": "sonClocheMedium"}
        ]
    }
}
